Tidy Transcriptomics For Single-Cell RNA Sequencing Analyses • bioc2022tidytranscriptomics
…
We can use select to view columns, for example, to see
the filename, total cellular RNA abundance and cell phase.

sce_obj |> select(file, nCount_RNA, Phase)

## tidySingleCellExperiment says: Key columns are missing. A data frame is returned for independent data analysis.

## # A tibble: 3,580 × 3
##    file                                                            nCoun…¹ Phase
##    <chr>                                                             <int> <fct>
##  1 ../data/bhupinder_10X_260819/SI-GA-H1/outs/raw_feature_bc_matr…     215 G1   
##  2 ../data/bhupinder_10X_260819/SI-GA-H1/outs/raw_feature_bc_matr…     145 S    
##  3 ../data/bhupinder_10X_260819/SI-GA-H1/outs/raw_feature_bc_matr…     356 G1   
##  4 ../data/bhupinder_10X_260819/SI-GA-H1/outs/raw_feature_bc_matr…     385 S    
##  5 ../data/bhupinder_10X_260819/SI-GA-H1/outs/raw_feature_bc_matr…     352 G1   
##  6 ../data/bhupinder_10X_260819/SI-GA-H1/outs/raw_feature_bc_matr…     335 S    
##  7 ../data/bhupinder_10X_260819/SI-GA-H1/outs/raw_feature_bc_matr…     242 G1   
##  8 ../data/bhupinder_10X_260819/SI-GA-H1/outs/raw_feature_bc_matr…     438 G1   
##  9 ../data/bhupinder_10X_260819/SI-GA-H1/outs/raw_feature_bc_matr…     180 G1   
## 10 ../data/bhupinder_10X_260819/SI-GA-H1/outs/raw_feature_bc_matr…      82 S    
## # … with 3,570 more rows, and abbreviated variable name ¹​nCount_RNA
## # ℹ Use `print(n = ...)` to see more rows
…
We can use mutate to create a column. For example, we
could create a new Phase_l column that contains a
lower-case version of Phase.

sce_obj |>
  mutate(Phase_l = tolower(Phase)) |>
  select(Phase, Phase_l)

## tidySingleCellExperiment says: Key columns are missing. A data frame is returned for independent data analysis.

## # A tibble: 3,580 × 2
##    Phase Phase_l
##    <fct> <chr>  
##  1 G1    g1     
##  2 S     s      
##  3 G1    g1     
##  4 S     s      
##  5 G1    g1     
##  6 S     s      
##  7 G1    g1     
##  8 G1    g1     
##  9 G1    g1     
## 10 S     s      
## # … with 3,570 more rows
## # ℹ Use `print(n = ...)` to see more rows

We can use tidyverse commands to polish an annotation column. We will
extract the sample, and group information from the file name column into
separate columns.

# First take a look at the file column
sce_obj |> select(file)

## tidySingleCellExperiment says: Key columns are missing. A data frame is returned for independent data analysis.

## # A tibble: 3,580 × 1
##    file                                                             
##    <chr>                                                            
##  1 ../data/bhupinder_10X_260819/SI-GA-H1/outs/raw_feature_bc_matrix/
##  2 ../data/bhupinder_10X_260819/SI-GA-H1/outs/raw_feature_bc_matrix/
##  3 ../data/bhupinder_10X_260819/SI-GA-H1/outs/raw_feature_bc_matrix/
##  4 ../data/bhupinder_10X_260819/SI-GA-H1/outs/raw_feature_bc_matrix/
##  5 ../data/bhupinder_10X_260819/SI-GA-H1/outs/raw_feature_bc_matrix/
##  6 ../data/bhupinder_10X_260819/SI-GA-H1/outs/raw_feature_bc_matrix/
##  7 ../data/bhupinder_10X_260819/SI-GA-H1/outs/raw_feature_bc_matrix/
##  8 ../data/bhupinder_10X_260819/SI-GA-H1/outs/raw_feature_bc_matrix/
##  9 ../data/bhupinder_10X_260819/SI-GA-H1/outs/raw_feature_bc_matrix/
## 10 ../data/bhupinder_10X_260819/SI-GA-H1/outs/raw_feature_bc_matrix/
## # … with 3,570 more rows
## # ℹ Use `print(n = ...)` to see more rows
…
We could use tidyverse unite to combine columns, for
example to create a new column for sample id combining the sample and
patient id (BCB) columns.

sce_obj <- sce_obj |> unite("sample_id", sample, BCB, remove = FALSE)

# Take a look
sce_obj |> select(sample_id, sample, BCB)

## tidySingleCellExperiment says: Key columns are missing. A data frame is returned for independent data analysis.

## # A tibble: 3,580 × 3
##    sample_id       sample   BCB   
##    <chr>           <chr>    <fct> 
##  1 SI-GA-H1_BCB102 SI-GA-H1 BCB102
##  2 SI-GA-H1_BCB102 SI-GA-H1 BCB102
##  3 SI-GA-H1_BCB102 SI-GA-H1 BCB102
##  4 SI-GA-H1_BCB102 SI-GA-H1 BCB102
##  5 SI-GA-H1_BCB102 SI-GA-H1 BCB102
##  6 SI-GA-H1_BCB102 SI-GA-H1 BCB102
##  7 SI-GA-H1_BCB102 SI-GA-H1 BCB102
##  8 SI-GA-H1_BCB102 SI-GA-H1 BCB102
##  9 SI-GA-H1_BCB102 SI-GA-H1 BCB102
## 10 SI-GA-H1_BCB102 SI-GA-H1 BCB102
## # … with 3,570 more rows
## # ℹ Use `print(n = ...)` to see more rows
…
